<?xml version="1.0" encoding="UTF-8" standalone="no"?>
<!-- Created with Inkscape (http://www.inkscape.org/) -->

<svg
   width="610"
   height="500"
   id="svg2"
   sodipodi:version="0.32"
   inkscape:version="1.1 (c68e22c387, 2021-05-23)"
   version="1.0"
   sodipodi:docname="Hex0.svg"
   inkscape:output_extension="org.inkscape.output.svg.inkscape"
   xmlns:inkscape="http://www.inkscape.org/namespaces/inkscape"
   xmlns:sodipodi="http://sodipodi.sourceforge.net/DTD/sodipodi-0.dtd"
   xmlns="http://www.w3.org/2000/svg"
   xmlns:svg="http://www.w3.org/2000/svg"
   xmlns:rdf="http://www.w3.org/1999/02/22-rdf-syntax-ns#"
   xmlns:cc="http://creativecommons.org/ns#"
   xmlns:dc="http://purl.org/dc/elements/1.1/">
  <defs
     id="defs4">
    <marker
       inkscape:stockid="Arrow2Send"
       orient="auto"
       refY="0.0"
       refX="0.0"
       id="Arrow2Send"
       style="overflow:visible;">
      <path
         id="path3197"
         style="font-size:12.0;fill-rule:evenodd;stroke-width:0.62500000;stroke-linejoin:round;"
         d="M 8.7185878,4.0337352 L -2.2072895,0.016013256 L 8.7185884,-4.0017078 C 6.9730900,-1.6296469 6.9831476,1.6157441 8.7185878,4.0337352 z "
         transform="scale(0.3) rotate(180) translate(-2.3,0)" />
    </marker>
    <marker
       inkscape:stockid="Arrow2Send6332"
       orient="auto"
       refY="0.0"
       refX="0.0"
       style="overflow:visible;"
       id="Arrow2Send6332">
      <path
         id="path5643"
         style="font-size:12.0;fill-rule:evenodd;stroke-width:0.62500000;stroke-linejoin:round;stroke:#563d7c;fill:#563d7c"
         d="M 8.7185878,4.0337352 L -2.2072895,0.016013256 L 8.7185884,-4.0017078 C 6.9730900,-1.6296469 6.9831476,1.6157441 8.7185878,4.0337352 z "
         transform="scale(0.3) rotate(180) translate(-2.3,0)" />
    </marker>
    <marker
       inkscape:stockid="Arrow2Send5077"
       orient="auto"
       refY="0.0"
       refX="0.0"
       style="overflow:visible;"
       id="Arrow2Send5077">
      <path
         id="path5805"
         style="font-size:12.0;fill-rule:evenodd;stroke-width:0.62500000;stroke-linejoin:round;stroke:#20c997;fill:#20c997"
         d="M 8.7185878,4.0337352 L -2.2072895,0.016013256 L 8.7185884,-4.0017078 C 6.9730900,-1.6296469 6.9831476,1.6157441 8.7185878,4.0337352 z "
         transform="scale(0.3) rotate(180) translate(-2.3,0)" />
    </marker>
    <marker
       inkscape:stockid="Arrow2Send507747"
       orient="auto"
       refY="0.0"
       refX="0.0"
       style="overflow:visible;"
       id="Arrow2Send507747">
      <path
         id="path5865"
         style="font-size:12.0;fill-rule:evenodd;stroke-width:0.62500000;stroke-linejoin:round;stroke:#20c997;fill:#20c997"
         d="M 8.7185878,4.0337352 L -2.2072895,0.016013256 L 8.7185884,-4.0017078 C 6.9730900,-1.6296469 6.9831476,1.6157441 8.7185878,4.0337352 z "
         transform="scale(0.3) rotate(180) translate(-2.3,0)" />
    </marker>
    <marker
       inkscape:stockid="Arrow2Send228"
       orient="auto"
       refY="0.0"
       refX="0.0"
       style="overflow:visible;"
       id="Arrow2Send228">
      <path
         id="path5965"
         style="font-size:12.0;fill-rule:evenodd;stroke-width:0.62500000;stroke-linejoin:round;stroke:#17a2b8;fill:#17a2b8"
         d="M 8.7185878,4.0337352 L -2.2072895,0.016013256 L 8.7185884,-4.0017078 C 6.9730900,-1.6296469 6.9831476,1.6157441 8.7185878,4.0337352 z "
         transform="scale(0.3) rotate(180) translate(-2.3,0)" />
    </marker>
  </defs>
  <sodipodi:namedview
     id="base"
     pagecolor="#ffffff"
     bordercolor="#666666"
     borderopacity="1.0"
     gridtolerance="10000"
     guidetolerance="10"
     objecttolerance="10"
     inkscape:pageopacity="0.0"
     inkscape:pageshadow="2"
     inkscape:zoom="1.0005561"
     inkscape:cx="80.455259"
     inkscape:cy="196.39079"
     inkscape:document-units="px"
     inkscape:current-layer="layer1"
     showgrid="false"
     inkscape:window-width="1858"
     inkscape:window-height="1057"
     inkscape:window-x="54"
     inkscape:window-y="-8"
     inkscape:pagecheckerboard="1"
     inkscape:window-maximized="1" />
  <metadata
     id="metadata7">
    <rdf:RDF>
      <cc:Work
         rdf:about="">
        <dc:format>image/svg+xml</dc:format>
        <dc:type
           rdf:resource="http://purl.org/dc/dcmitype/StillImage" />
      </cc:Work>
    </rdf:RDF>
  </metadata>
  <g
     inkscape:label="Layer 1"
     inkscape:groupmode="layer"
     id="layer1">
    <path
       sodipodi:type="star"
       style="fill:#000000;fill-opacity:0.120968;stroke:#000000;stroke-width:6;stroke-miterlimit:4;stroke-dasharray:none;stroke-dashoffset:0;stroke-opacity:1;paint-order:normal"
       id="path18198"
       inkscape:flatsided="true"
       sodipodi:sides="6"
       sodipodi:cx="248.80099"
       sodipodi:cy="251.62782"
       sodipodi:r1="90.95491"
       sodipodi:r2="78.769264"
       sodipodi:arg1="-0.010988569"
       sodipodi:arg2="0.51261021"
       inkscape:rounded="0"
       inkscape:randomized="0"
       d="m 339.75041,250.62838 -44.60916,79.26423 -90.94942,0.99944 -46.34025,-78.26478 44.60916,-79.26423 90.94942,-0.99945 z"
       transform="matrix(1.2835532,-0.73242891,0.73242891,1.2835532,-254.84781,110.87916)" />
    <path
       sodipodi:type="arc"
       style="opacity:1;fill:none;fill-opacity:1;fill-rule:nonzero;stroke:#000000;stroke-width:2.06785715;stroke-linecap:round;stroke-linejoin:round;stroke-miterlimit:4;stroke-dasharray:8.27142858,8.27142858;stroke-dashoffset:0;stroke-opacity:1"
       id="path2383"
       sodipodi:cx="262.85715"
       sodipodi:cy="242.85715"
       sodipodi:rx="204.28572"
       sodipodi:ry="204.28572"
       d="M 467.14287,242.85715 A 204.28572,204.28572 0 1 1 58.571426,242.85715 A 204.28572,204.28572 0 1 1 467.14287,242.85715 z"
       transform="matrix(0.9671848,0,0,0.9671848,-4.2314297,15.112271)" />
    <path
       style="fill:none;fill-opacity:0.75;fill-rule:evenodd;stroke:#17a2b8;stroke-width:6;stroke-linecap:butt;stroke-linejoin:miter;marker-end:url(#Arrow2Send228);stroke-miterlimit:4;stroke-dasharray:none;stroke-opacity:1"
       d="M 250,250 L 435,250"
       id="path3159"
       sodipodi:nodetypes="cc" />
    <path
       sodipodi:nodetypes="cc"
       id="path5526"
       d="m 344.99861,79.790558 -92.5,160.215002"
       style="fill:none;fill-opacity:0.75;fill-rule:evenodd;stroke:#20c997;stroke-width:6;stroke-linecap:butt;stroke-linejoin:miter;stroke-miterlimit:4;stroke-dasharray:none;stroke-opacity:1;marker-end:url(#Arrow2Send507747)" />
    <path
       style="fill:none;fill-opacity:0.75;fill-rule:evenodd;stroke:#563d7c;stroke-width:6;stroke-linecap:butt;stroke-linejoin:miter;stroke-miterlimit:4;stroke-dasharray:none;stroke-opacity:1;marker-end:url(#Arrow2Send6332)"
       d="m 444.49472,247.50139 -92.5,-160.215001"
       id="path5528"
       sodipodi:nodetypes="cc" />
    <text
       xml:space="preserve"
       style="font-style:normal;font-weight:normal;font-size:40px;line-height:1.25;font-family:sans-serif;fill:#000000;fill-opacity:1;stroke:none"
       x="324.31964"
       y="284.34189"
       id="text7348"><tspan
         sodipodi:role="line"
         id="tspan7346"
         x="324.31964"
         y="284.34189">α</tspan></text>
    <text
       xml:space="preserve"
       style="font-style:normal;font-weight:normal;font-size:40px;line-height:1.25;font-family:sans-serif;fill:#000000;fill-opacity:1;stroke:none"
       x="406.93622"
       y="167.35052"
       id="text7348-3"><tspan
         sodipodi:role="line"
         id="tspan7346-4"
         x="406.93622"
         y="167.35052">β</tspan></text>
    <text
       xml:space="preserve"
       style="font-style:normal;font-weight:normal;font-size:40px;line-height:1.25;font-family:sans-serif;fill:#000000;fill-opacity:1;stroke:none"
       x="261.51706"
       y="173.84691"
       id="text7348-7"><tspan
         sodipodi:role="line"
         id="tspan7346-1"
         x="261.51706"
         y="173.84691">γ</tspan></text>
  </g>
</svg>
