<?xml version="1.0" encoding="UTF-8" standalone="no"?>
<!-- Created with Inkscape (http://www.inkscape.org/) -->

<svg
   width="307.28000pt"
   height="223.89000pt"
   id="svg8621"
   sodipodi:version="0.32"
   inkscape:version="1.1 (c68e22c387, 2021-05-23)"
   sodipodi:docname="Set-Intersection.svg"
   version="1.1"
   xmlns:inkscape="http://www.inkscape.org/namespaces/inkscape"
   xmlns:sodipodi="http://sodipodi.sourceforge.net/DTD/sodipodi-0.dtd"
   xmlns="http://www.w3.org/2000/svg"
   xmlns:svg="http://www.w3.org/2000/svg"
   xmlns:rdf="http://www.w3.org/1999/02/22-rdf-syntax-ns#"
   xmlns:cc="http://creativecommons.org/ns#"
   xmlns:dc="http://purl.org/dc/elements/1.1/">
  <defs
     id="defs3" />
  <sodipodi:namedview
     inkscape:document-units="mm"
     id="base"
     pagecolor="#ffffff"
     bordercolor="#666666"
     borderopacity="1.0"
     inkscape:pageopacity="0.0"
     inkscape:pageshadow="2"
     inkscape:zoom="1.8914474"
     inkscape:cx="249.8087"
     inkscape:cy="166.27478"
     inkscape:current-layer="layer1"
     inkscape:window-width="1858"
     inkscape:window-height="1057"
     inkscape:window-x="54"
     inkscape:window-y="-8"
     showborder="true"
     borderlayer="top"
     inkscape:pagecheckerboard="1"
     showgrid="false"
     inkscape:window-maximized="1" />
  <metadata
     id="metadata4">
    <rdf:RDF>
      <cc:Work
         rdf:about="">
        <dc:format>image/svg+xml</dc:format>
        <dc:type
           rdf:resource="http://purl.org/dc/dcmitype/StillImage" />
      </cc:Work>
    </rdf:RDF>
  </metadata>
  <g
     inkscape:label="Layer 1"
     inkscape:groupmode="layer"
     id="layer1">
    <rect
       x="2.5324416"
       y="2.5291228"
       width="379.02979"
       height="274.79257"
       id="rect1310"
       style="fill:#ffffff;fill-opacity:1.0000000;stroke:#000000;stroke-width:5.0498838;stroke-miterlimit:4.0000000;stroke-dasharray:none;stroke-opacity:1.0000000" />
    <circle
       sodipodi:ry="120.00000"
       sodipodi:rx="120.00000"
       sodipodi:cy="180.00000"
       sodipodi:cx="180.00000"
       cx="180.00000"
       cy="180.00000"
       r="120.00000"
       id="circle1312"
       style="fill:#ffffff;fill-opacity:1.0000000;stroke:#000000;stroke-width:6.0000000;stroke-miterlimit:4.0000000;stroke-dasharray:none;stroke-opacity:1.0000000"
       transform="matrix(0.842564,0.000000,0.000000,0.840731,-10.24387,-10.52388)" />
    <circle
       sodipodi:ry="120.00000"
       sodipodi:rx="120.00000"
       sodipodi:cy="180.00000"
       sodipodi:cx="300.00000"
       cx="300.00000"
       cy="180.00000"
       r="120.00000"
       id="circle1316"
       style="fill:#ffffff;fill-opacity:1.0000000;stroke:#000000;stroke-width:6.0000000;stroke-miterlimit:4.0000000;stroke-dasharray:none;stroke-opacity:1.0000000"
       transform="matrix(0.842564,0.000000,0.000000,0.840731,-10.24387,-10.52388)" />
    <path
       d="M 191.97147,53.436405 C 223.25430,71.458270 242.52530,104.76406 242.52530,140.80780 C 242.52530,176.85154 223.25430,210.15733 191.97147,228.17919 C 160.68865,210.15733 141.41763,176.85154 141.41763,140.80780 C 141.41763,104.76406 160.68865,71.458270 191.97147,53.436405"
       id="path1320"
       style="fill:#563d7c;fill-opacity:1;stroke:#000000;stroke-width:5.0498838;stroke-miterlimit:4;stroke-dasharray:none;stroke-opacity:1" />
  </g>
</svg>
